ps2/p1/sim/testfifo.vcd
$date
	Sun Sep 27 19:22:30 2015
$end
$version
	QuestaSim Version 6.5f
$end
$timescale
	1fs
$end
$scope module testfifo $end
$var reg 1 ! clk $end
$var reg 1 " en $end
$var reg 1 # clear $end
$var reg 1 $ rw $end
$var reg 8 % wordIn [7:0] $end
$var wire 1 & wordOut [7] $end
$var wire 1 ' wordOut [6] $end
$var wire 1 ( wordOut [5] $end
$var wire 1 ) wordOut [4] $end
$var wire 1 * wordOut [3] $end
$var wire 1 + wordOut [2] $end
$var wire 1 , wordOut [1] $end
$var wire 1 - wordOut [0] $end
$var wire 1 . intr $end
$var reg 1 / done $end
$var reg 5 0 counter [4:0] $end
$scope module f $end
$var parameter 8 1 zWord $end
$var wire 1 2 pclk $end
$var wire 1 3 en $end
$var wire 1 4 clear $end
$var wire 1 5 rw $end
$var wire 1 6 wordIn [7] $end
$var wire 1 7 wordIn [6] $end
$var wire 1 8 wordIn [5] $end
$var wire 1 9 wordIn [4] $end
$var wire 1 : wordIn [3] $end
$var wire 1 ; wordIn [2] $end
$var wire 1 < wordIn [1] $end
$var wire 1 = wordIn [0] $end
$var wire 1 & wordOut [7] $end
$var wire 1 ' wordOut [6] $end
$var wire 1 ( wordOut [5] $end
$var wire 1 ) wordOut [4] $end
$var wire 1 * wordOut [3] $end
$var wire 1 + wordOut [2] $end
$var wire 1 , wordOut [1] $end
$var wire 1 - wordOut [0] $end
$var wire 1 . intr $end
$var reg 32 > queue [31:0] $end
$var reg 4 ? size [3:0] $end
$var reg 1 @ wordOutEn $end
$upscope $end
$upscope $end
$enddefinitions $end
#0
$dumpvars
bz 1
0!
0"
0#
x$
bx %
0/
b0 0
b0 >
b0 ?
0@
z-
z,
z+
z*
z)
z(
z'
z&
0.
x=
x<
x;
x:
x9
x8
x7
x6
x5
04
03
02
$end
#11
1!
12
1#
b1 0
14
#12
0!
02
#13
1!
12
1"
b10 0
13
#14
0!
02
#15
1!
12
0$
b11 0
05
#16
0!
02
#17
1!
12
b100 0
1$
b1100011 %
15
1=
1<
0;
0:
09
18
17
06
#18
0!
02
#19
1!
12
b1100001 %
b101 0
0<
b1100011 >
b1 ?
#20
0!
02
#21
1!
12
b1110100 %
b110 0
0=
1;
19
b110000101100011 >
b10 ?
#22
0!
02
#23
1!
12
b1110011 %
b111 0
1=
1<
0;
b11101000110000101100011 >
b100 ?
#24
0!
02
#25
1!
12
0$
b1000 0
05
b1110011011101000110000101100011 >
b1000 ?
#26
0!
02
#27
1!
12
1@
b1001 0
1-
1,
0+
0*
0)
1(
1'
0&
#28
0!
02
b11100110111010001100001 >
0@
b100 ?
z-
z,
z+
z*
z)
z(
z'
z&
#29
1!
12
1@
b1010 0
1-
0,
0+
0*
0)
1(
1'
0&
#30
0!
02
b111001101110100 >
0@
b10 ?
z-
z,
z+
z*
z)
z(
z'
z&
#31
1!
12
1@
b1011 0
0-
0,
1+
0*
1)
1(
1'
0&
#32
0!
02
b1110011 >
0@
b1 ?
z-
z,
z+
z*
z)
z(
z'
z&
#33
1!
12
1@
b1100 0
1-
1,
0+
0*
1)
1(
1'
0&
1$
b1100010 %
15
0=
09
#34
0!
02
b0 >
0@
b0 ?
z-
z,
z+
z*
z)
z(
z'
z&
#35
1!
12
b1101001 %
b1101 0
1=
0<
1:
b1100010 >
b1 ?
#36
0!
02
#37
1!
12
b1110010 %
b1110 0
0=
1<
0:
19
b110100101100010 >
b10 ?
#38
0!
02
#39
1!
12
b1100100 %
b1111 0
0<
1;
09
b11100100110100101100010 >
b100 ?
#40
0!
02
#41
1!
12
b10000 0
b1100100011100100110100101100010 >
b1000 ?
b1110011 %
1/
1=
1<
0;
19
1.
