ps2/submit/p2/sim/main-b5.vcd
$date
	Sat Oct 10 19:39:15 2015
$end
$version
	QuestaSim Version 6.5f
$end
$timescale
	1fs
$end
$scope module main_b5 $end
$var parameter 32 ! BUSW $end
$var parameter 32 " PSRW $end
$var parameter 32 # MINDW $end
$var parameter 32 $ MWORDS $end
$var parameter 32 % RINDW $end
$var parameter 32 & RWORDS $end
$var parameter 32 ' IRW $end
$var parameter 32 ( IR_DSTIND $end
$var parameter 32 ) IR_SRCIND_CNT $end
$var parameter 32 * IR_SRCTYPE $end
$var parameter 32 + IR_DSTTYPE $end
$var parameter 32 , IR_CC $end
$var parameter 32 - IR_OP $end
$var parameter 32 . OPW $end
$var parameter 32 / CCW $end
$var parameter 32 0 CNTW $end
$var parameter 32 1 SRCINDW $end
$var parameter 32 2 DSTINDW $end
$var parameter 1 3 REGTYPE $end
$var parameter 1 4 IMMTYPE $end
$var parameter 1 5 SMEMTYPE $end
$var parameter 1 6 DMEMTYPE $end
$var parameter 4 7 NOP $end
$var parameter 4 8 LD $end
$var parameter 4 9 STR $end
$var parameter 4 : BRA $end
$var parameter 4 ; XOR $end
$var parameter 4 < ADD $end
$var parameter 4 = ROT $end
$var parameter 4 > SHF $end
$var parameter 4 ? HLT $end
$var parameter 4 @ CMP $end
$var parameter 4 A CC_A $end
$var parameter 4 B CC_P $end
$var parameter 4 C CC_E $end
$var parameter 4 D CC_C $end
$var parameter 4 E CC_N $end
$var parameter 4 F CC_Z $end
$var parameter 4 G CC_NC $end
$var parameter 4 H CC_PO $end
$var parameter 32 I CARRY $end
$var parameter 32 J PARITY $end
$var parameter 32 K EVEN $end
$var parameter 32 L NEGATIVE $end
$var parameter 32 M ZERO $end
$var parameter 32 N EOF $end
$var reg 32 O IReg [31:0] $end
$var reg 12 P PCntr [11:0] $end
$var reg 5 Q Psr [4:0] $end
$var reg 1 R clk $end
$var reg 1 S done $end
$var time 64 T tstart $end
$scope begin REG_INIT_BLOCK $end
$var integer 32 U i $end
$var reg 12 V PCntrSave [11:0] $end
$upscope $end
$scope task tFINISH $end
$upscope $end
$scope function fCOMPLEMENT $end
$var reg 1 W fCOMPLEMENT $end
$var reg 1 X foo $end
$var reg 1 Y ret $end
$upscope $end
$scope function fROTATE $end
$var reg 12 Z fROTATE [11:0] $end
$var reg 1 [ foo $end
$var reg 1 \ carry $end
$var reg 1 ] ret $end
$var reg 4 ^ Shift [3:0] $end
$var integer 32 _ i $end
$upscope $end
$scope function fSHIFT $end
$var reg 12 ` fSHIFT [11:0] $end
$var reg 1 a foo $end
$var reg 1 b carry $end
$var reg 1 c ret $end
$var reg 4 d Shift [3:0] $end
$upscope $end
$scope function fADD $end
$var reg 12 e fADD [11:0] $end
$var reg 1 f foo $end
$var reg 1 g carry $end
$var reg 1 h ret $end
$upscope $end
$scope function fXOR $end
$var reg 12 i fXOR [11:0] $end
$var reg 1 j foo $end
$var reg 1 k ret $end
$upscope $end
$scope function fBRANCH $end
$var reg 12 l fBRANCH [11:0] $end
$var reg 1 m foo $end
$upscope $end
$scope function fSTORE $end
$var reg 12 n fSTORE [11:0] $end
$var reg 1 o foo $end
$upscope $end
$scope function fLOAD $end
$var reg 12 p fLOAD [11:0] $end
$var reg 1 q foo $end
$var reg 1 r ret $end
$upscope $end
$scope function fSETPSR $end
$var reg 1 s fSETPSR $end
$var reg 32 t Val [31:0] $end
$var reg 1 u carry $end
$upscope $end
$scope function fPARITY $end
$var reg 1 v fPARITY [0:0] $end
$var reg 32 w Val [31:0] $end
$var integer 32 x i $end
$upscope $end
$scope function fLoadProgramFromFile $end
$var reg 12 y fLoadProgramFromFile [11:0] $end
$var reg 1 z foo $end
$var integer 32 { fd $end
$var integer 32 | ret $end
$var integer 32 } line $end
$upscope $end
$scope function fLoadProgram $end
$var reg 12 ~ fLoadProgram [11:0] $end
$var reg 32 !! Arg [31:0] $end
$upscope $end
$scope function fFitSrcInd $end
$var reg 12 "! fFitSrcInd [11:0] $end
$var integer 32 #! I $end
$upscope $end
$scope function fFitDstInd $end
$var reg 12 $! fFitDstInd [11:0] $end
$var integer 32 %! I $end
$upscope $end
$scope task tPRINT_IREG $end
$scope begin DISP_ROT $end
$var reg 4 &! Shift [3:0] $end
$upscope $end
$scope begin DIST_SHF $end
$var reg 4 '! Shift [3:0] $end
$upscope $end
$upscope $end
$upscope $end
$enddefinitions $end
#0
$dumpvars
b100000 !
b101 "
b1100 #
b1000000000000 $
b100 %
b10000 &
b100000 '
b0 (
b1100 )
b11011 *
b11010 +
b11000 ,
b11100 -
b100 .
b100 /
b101 0
b1100 1
b1100 2
b0 3
b1 4
b0 5
b1 6
b0 7
b1 8
b10 9
b11 :
b100 ;
b101 <
b110 =
b111 >
b1000 ?
b1001 @
b0 A
b1 B
b10 C
b11 D
b100 E
b101 F
b110 G
b111 H
b0 I
b1 J
b10 K
b11 L
b100 M
b11111111111111111111111111111111 N
bx O
bx P
bx Q
xR
xS
bx T
b0 U
bx V
xW
xX
xY
bx Z
x[
x\
x]
bx ^
bx _
bx `
xa
xb
xc
bx d
bx e
xf
xg
xh
bx i
xj
xk
bx l
xm
bx n
xo
bx p
xq
xr
xs
bx t
xu
bx v
bx w
bx x
bx y
xz
bx {
bx |
bx }
bx ~
bx !!
bx "!
bx #!
bx $!
bx %!
bx &!
bx '!
$end
#1
b1 U
#2
b10 U
#3
b11 U
#4
b100 U
#5
b101 U
#6
b110 U
#7
b111 U
#8
b1000 U
#9
b1001 U
#10
b1010 U
#11
b1011 U
#12
b1100 U
#13
b1101 U
#14
b1110 U
#15
b1111 U
#16
b10000 U
#17
b10001 U
#18
b10010 U
#19
b10011 U
#20
b10100 U
#21
b10101 U
#22
b10110 U
#23
b10111 U
#24
b11000 U
#25
b11001 U
#26
b11010 U
#27
b11011 U
#28
b11100 U
#29
b11101 U
#30
b11110 U
#31
b11111 U
#32
b100000 U
#33
b100001 U
#34
b100010 U
#35
b100011 U
#36
b100100 U
#37
b100101 U
#38
b100110 U
#39
b100111 U
#40
b101000 U
#41
b101001 U
#42
b101010 U
#43
b101011 U
#44
b101100 U
#45
b101101 U
#46
b101110 U
#47
b101111 U
#48
b110000 U
#49
b110001 U
#50
b110010 U
#51
b110011 U
#52
b110100 U
#53
b110101 U
#54
b110110 U
#55
b110111 U
#56
b111000 U
#57
b111001 U
#58
b111010 U
#59
b111011 U
#60
b111100 U
#61
b111101 U
#62
b111110 U
#63
b111111 U
#64
b1000000 U
#65
b1000001 U
#66
b1000010 U
#67
b1000011 U
#68
b1000100 U
#69
b1000101 U
#70
b1000110 U
#71
b1000111 U
#72
b1001000 U
#73
b1001001 U
#74
b1001010 U
#75
b1001011 U
#76
b1001100 U
#77
b1001101 U
#78
b1001110 U
#79
b1001111 U
#80
b1010000 U
#81
b1010001 U
#82
b1010010 U
#83
b1010011 U
#84
b1010100 U
#85
b1010101 U
#86
b1010110 U
#87
b1010111 U
#88
b1011000 U
#89
b1011001 U
#90
b1011010 U
#91
b1011011 U
#92
b1011100 U
#93
b1011101 U
#94
b1011110 U
#95
b1011111 U
#96
b1100000 U
#97
b1100001 U
#98
b1100010 U
#99
b1100011 U
#100
b1100100 U
#101
b1100101 U
#102
b1100110 U
#103
b1100111 U
#104
b1101000 U
#105
b1101001 U
#106
b1101010 U
#107
b1101011 U
#108
b1101100 U
#109
b1101101 U
#110
b1101110 U
#111
b1101111 U
#112
b1110000 U
#113
b1110001 U
#114
b1110010 U
#115
b1110011 U
#116
b1110100 U
#117
b1110101 U
#118
b1110110 U
#119
b1110111 U
#120
b1111000 U
#121
b1111001 U
#122
b1111010 U
#123
b1111011 U
#124
b1111100 U
#125
b1111101 U
#126
b1111110 U
#127
b1111111 U
#128
b10000000 U
#129
b10000001 U
#130
b10000010 U
#131
b10000011 U
#132
b10000100 U
#133
b10000101 U
#134
b10000110 U
#135
b10000111 U
#136
b10001000 U
#137
b10001001 U
#138
b10001010 U
#139
b10001011 U
#140
b10001100 U
#141
b10001101 U
#142
b10001110 U
#143
b10001111 U
#144
b10010000 U
#145
b10010001 U
#146
b10010010 U
#147
b10010011 U
#148
b10010100 U
#149
b10010101 U
#150
b10010110 U
#151
b10010111 U
#152
b10011000 U
#153
b10011001 U
#154
b10011010 U
#155
b10011011 U
#156
b10011100 U
#157
b10011101 U
#158
b10011110 U
#159
b10011111 U
#160
b10100000 U
#161
b10100001 U
#162
b10100010 U
#163
b10100011 U
#164
b10100100 U
#165
b10100101 U
#166
b10100110 U
#167
b10100111 U
#168
b10101000 U
#169
b10101001 U
#170
b10101010 U
#171
b10101011 U
#172
b10101100 U
#173
b10101101 U
#174
b10101110 U
#175
b10101111 U
#176
b10110000 U
#177
b10110001 U
#178
b10110010 U
#179
b10110011 U
#180
b10110100 U
#181
b10110101 U
#182
b10110110 U
#183
b10110111 U
#184
b10111000 U
#185
b10111001 U
#186
b10111010 U
#187
b10111011 U
#188
b10111100 U
#189
b10111101 U
#190
b10111110 U
#191
b10111111 U
#192
b11000000 U
#193
b11000001 U
#194
b11000010 U
#195
b11000011 U
#196
b11000100 U
#197
b11000101 U
#198
b11000110 U
#199
b11000111 U
#200
b11001000 U
#201
b11001001 U
#202
b11001010 U
#203
b11001011 U
#204
b11001100 U
#205
b11001101 U
#206
b11001110 U
#207
b11001111 U
#208
b11010000 U
#209
b11010001 U
#210
b11010010 U
#211
b11010011 U
#212
b11010100 U
#213
b11010101 U
#214
b11010110 U
#215
b11010111 U
#216
b11011000 U
#217
b11011001 U
#218
b11011010 U
#219
b11011011 U
#220
b11011100 U
#221
b11011101 U
#222
b11011110 U
#223
b11011111 U
#224
b11100000 U
#225
b11100001 U
#226
b11100010 U
#227
b11100011 U
#228
b11100100 U
#229
b11100101 U
#230
b11100110 U
#231
b11100111 U
#232
b11101000 U
#233
b11101001 U
#234
b11101010 U
#235
b11101011 U
#236
b11101100 U
#237
b11101101 U
#238
b11101110 U
#239
b11101111 U
#240
b11110000 U
#241
b11110001 U
#242
b11110010 U
#243
b11110011 U
#244
b11110100 U
#245
b11110101 U
#246
b11110110 U
#247
b11110111 U
#248
b11111000 U
#249
b11111001 U
#250
b11111010 U
#251
b11111011 U
#252
b11111100 U
#253
b11111101 U
#254
b11111110 U
#255
b11111111 U
#256
b100000000 U
#257
b100000001 U
#258
b100000010 U
#259
b100000011 U
#260
b100000100 U
#261
b100000101 U
#262
b100000110 U
#263
b100000111 U
#264
b100001000 U
#265
b100001001 U
#266
b100001010 U
#267
b100001011 U
#268
b100001100 U
#269
b100001101 U
#270
b100001110 U
#271
b100001111 U
#272
b100010000 U
#273
b100010001 U
#274
b100010010 U
#275
b100010011 U
#276
b100010100 U
#277
b100010101 U
#278
b100010110 U
#279
b100010111 U
#280
b100011000 U
#281
b100011001 U
#282
b100011010 U
#283
b100011011 U
#284
b100011100 U
#285
b100011101 U
#286
b100011110 U
#287
b100011111 U
#288
b100100000 U
#289
b100100001 U
#290
b100100010 U
#291
b100100011 U
#292
b100100100 U
#293
b100100101 U
#294
b100100110 U
#295
b100100111 U
#296
b100101000 U
#297
b100101001 U
#298
b100101010 U
#299
b100101011 U
#300
b100101100 U
#301
b100101101 U
#302
b100101110 U
#303
b100101111 U
#304
b100110000 U
#305
b100110001 U
#306
b100110010 U
#307
b100110011 U
#308
b100110100 U
#309
b100110101 U
#310
b100110110 U
#311
b100110111 U
#312
b100111000 U
#313
b100111001 U
#314
b100111010 U
#315
b100111011 U
#316
b100111100 U
#317
b100111101 U
#318
b100111110 U
#319
b100111111 U
#320
b101000000 U
#321
b101000001 U
#322
b101000010 U
#323
b101000011 U
#324
b101000100 U
#325
b101000101 U
#326
b101000110 U
#327
b101000111 U
#328
b101001000 U
#329
b101001001 U
#330
b101001010 U
#331
b101001011 U
#332
b101001100 U
#333
b101001101 U
#334
b101001110 U
#335
b101001111 U
#336
b101010000 U
#337
b101010001 U
#338
b101010010 U
#339
b101010011 U
#340
b101010100 U
#341
b101010101 U
#342
b101010110 U
#343
b101010111 U
#344
b101011000 U
#345
b101011001 U
#346
b101011010 U
#347
b101011011 U
#348
b101011100 U
#349
b101011101 U
#350
b101011110 U
#351
b101011111 U
#352
b101100000 U
#353
b101100001 U
#354
b101100010 U
#355
b101100011 U
#356
b101100100 U
#357
b101100101 U
#358
b101100110 U
#359
b101100111 U
#360
b101101000 U
#361
b101101001 U
#362
b101101010 U
#363
b101101011 U
#364
b101101100 U
#365
b101101101 U
#366
b101101110 U
#367
b101101111 U
#368
b101110000 U
#369
b101110001 U
#370
b101110010 U
#371
b101110011 U
#372
b101110100 U
#373
b101110101 U
#374
b101110110 U
#375
b101110111 U
#376
b101111000 U
#377
b101111001 U
#378
b101111010 U
#379
b101111011 U
#380
b101111100 U
#381
b101111101 U
#382
b101111110 U
#383
b101111111 U
#384
b110000000 U
#385
b110000001 U
#386
b110000010 U
#387
b110000011 U
#388
b110000100 U
#389
b110000101 U
#390
b110000110 U
#391
b110000111 U
#392
b110001000 U
#393
b110001001 U
#394
b110001010 U
#395
b110001011 U
#396
b110001100 U
#397
b110001101 U
#398
b110001110 U
#399
b110001111 U
#400
b110010000 U
#401
b110010001 U
#402
b110010010 U
#403
b110010011 U
#404
b110010100 U
#405
b110010101 U
#406
b110010110 U
#407
b110010111 U
#408
b110011000 U
#409
b110011001 U
#410
b110011010 U
#411
b110011011 U
#412
b110011100 U
#413
b110011101 U
#414
b110011110 U
#415
b110011111 U
#416
b110100000 U
#417
b110100001 U
#418
b110100010 U
#419
b110100011 U
#420
b110100100 U
#421
b110100101 U
#422
b110100110 U
#423
b110100111 U
#424
b110101000 U
#425
b110101001 U
#426
b110101010 U
#427
b110101011 U
#428
b110101100 U
#429
b110101101 U
#430
b110101110 U
#431
b110101111 U
#432
b110110000 U
#433
b110110001 U
#434
b110110010 U
#435
b110110011 U
#436
b110110100 U
#437
b110110101 U
#438
b110110110 U
#439
b110110111 U
#440
b110111000 U
#441
b110111001 U
#442
b110111010 U
#443
b110111011 U
#444
b110111100 U
#445
b110111101 U
#446
b110111110 U
#447
b110111111 U
#448
b111000000 U
#449
b111000001 U
#450
b111000010 U
#451
b111000011 U
#452
b111000100 U
#453
b111000101 U
#454
b111000110 U
#455
b111000111 U
#456
b111001000 U
#457
b111001001 U
#458
b111001010 U
#459
b111001011 U
#460
b111001100 U
#461
b111001101 U
#462
b111001110 U
#463
b111001111 U
#464
b111010000 U
#465
b111010001 U
#466
b111010010 U
#467
b111010011 U
#468
b111010100 U
#469
b111010101 U
#470
b111010110 U
#471
b111010111 U
#472
b111011000 U
#473
b111011001 U
#474
b111011010 U
#475
b111011011 U
#476
b111011100 U
#477
b111011101 U
#478
b111011110 U
#479
b111011111 U
#480
b111100000 U
#481
b111100001 U
#482
b111100010 U
#483
b111100011 U
#484
b111100100 U
#485
b111100101 U
#486
b111100110 U
#487
b111100111 U
#488
b111101000 U
#489
b111101001 U
#490
b111101010 U
#491
b111101011 U
#492
b111101100 U
#493
b111101101 U
#494
b111101110 U
#495
b111101111 U
#496
b111110000 U
#497
b111110001 U
#498
b111110010 U
#499
b111110011 U
#500
b111110100 U
#501
b111110101 U
#502
b111110110 U
#503
b111110111 U
#504
b111111000 U
#505
b111111001 U
#506
b111111010 U
#507
b111111011 U
#508
b111111100 U
#509
b111111101 U
#510
b111111110 U
#511
b111111111 U
#512
b1000000000 U
#513
b1000000001 U
#514
b1000000010 U
#515
b1000000011 U
#516
b1000000100 U
#517
b1000000101 U
#518
b1000000110 U
#519
b1000000111 U
#520
b1000001000 U
#521
b1000001001 U
#522
b1000001010 U
#523
b1000001011 U
#524
b1000001100 U
#525
b1000001101 U
#526
b1000001110 U
#527
b1000001111 U
#528
b1000010000 U
#529
b1000010001 U
#530
b1000010010 U
#531
b1000010011 U
#532
b1000010100 U
#533
b1000010101 U
#534
b1000010110 U
#535
b1000010111 U
#536
b1000011000 U
#537
b1000011001 U
#538
b1000011010 U
#539
b1000011011 U
#540
b1000011100 U
#541
b1000011101 U
#542
b1000011110 U
#543
b1000011111 U
#544
b1000100000 U
#545
b1000100001 U
#546
b1000100010 U
#547
b1000100011 U
#548
b1000100100 U
#549
b1000100101 U
#550
b1000100110 U
#551
b1000100111 U
#552
b1000101000 U
#553
b1000101001 U
#554
b1000101010 U
#555
b1000101011 U
#556
b1000101100 U
#557
b1000101101 U
#558
b1000101110 U
#559
b1000101111 U
#560
b1000110000 U
#561
b1000110001 U
#562
b1000110010 U
#563
b1000110011 U
#564
b1000110100 U
#565
b1000110101 U
#566
b1000110110 U
#567
b1000110111 U
#568
b1000111000 U
#569
b1000111001 U
#570
b1000111010 U
#571
b1000111011 U
#572
b1000111100 U
#573
b1000111101 U
#574
b1000111110 U
#575
b1000111111 U
#576
b1001000000 U
#577
b1001000001 U
#578
b1001000010 U
#579
b1001000011 U
#580
b1001000100 U
#581
b1001000101 U
#582
b1001000110 U
#583
b1001000111 U
#584
b1001001000 U
#585
b1001001001 U
#586
b1001001010 U
#587
b1001001011 U
#588
b1001001100 U
#589
b1001001101 U
#590
b1001001110 U
#591
b1001001111 U
#592
b1001010000 U
#593
b1001010001 U
#594
b1001010010 U
#595
b1001010011 U
#596
b1001010100 U
#597
b1001010101 U
#598
b1001010110 U
#599
b1001010111 U
#600
b1001011000 U
#601
b1001011001 U
#602
b1001011010 U
#603
b1001011011 U
#604
b1001011100 U
#605
b1001011101 U
#606
b1001011110 U
#607
b1001011111 U
#608
b1001100000 U
#609
b1001100001 U
#610
b1001100010 U
#611
b1001100011 U
#612
b1001100100 U
#613
b1001100101 U
#614
b1001100110 U
#615
b1001100111 U
#616
b1001101000 U
#617
b1001101001 U
#618
b1001101010 U
#619
b1001101011 U
#620
b1001101100 U
#621
b1001101101 U
#622
b1001101110 U
#623
b1001101111 U
#624
b1001110000 U
#625
b1001110001 U
#626
b1001110010 U
#627
b1001110011 U
#628
b1001110100 U
#629
b1001110101 U
#630
b1001110110 U
#631
b1001110111 U
#632
b1001111000 U
#633
b1001111001 U
#634
b1001111010 U
#635
b1001111011 U
#636
b1001111100 U
#637
b1001111101 U
#638
b1001111110 U
#639
b1001111111 U
#640
b1010000000 U
#641
b1010000001 U
#642
b1010000010 U
#643
b1010000011 U
#644
b1010000100 U
#645
b1010000101 U
#646
b1010000110 U
#647
b1010000111 U
#648
b1010001000 U
#649
b1010001001 U
#650
b1010001010 U
#651
b1010001011 U
#652
b1010001100 U
#653
b1010001101 U
#654
b1010001110 U
#655
b1010001111 U
#656
b1010010000 U
#657
b1010010001 U
#658
b1010010010 U
#659
b1010010011 U
#660
b1010010100 U
#661
b1010010101 U
#662
b1010010110 U
#663
b1010010111 U
#664
b1010011000 U
#665
b1010011001 U
#666
b1010011010 U
#667
b1010011011 U
#668
b1010011100 U
#669
b1010011101 U
#670
b1010011110 U
#671
b1010011111 U
#672
b1010100000 U
#673
b1010100001 U
#674
b1010100010 U
#675
b1010100011 U
#676
b1010100100 U
#677
b1010100101 U
#678
b1010100110 U
#679
b1010100111 U
#680
b1010101000 U
#681
b1010101001 U
#682
b1010101010 U
#683
b1010101011 U
#684
b1010101100 U
#685
b1010101101 U
#686
b1010101110 U
#687
b1010101111 U
#688
b1010110000 U
#689
b1010110001 U
#690
b1010110010 U
#691
b1010110011 U
#692
b1010110100 U
#693
b1010110101 U
#694
b1010110110 U
#695
b1010110111 U
#696
b1010111000 U
#697
b1010111001 U
#698
b1010111010 U
#699
b1010111011 U
#700
b1010111100 U
#701
b1010111101 U
#702
b1010111110 U
#703
b1010111111 U
#704
b1011000000 U
#705
b1011000001 U
#706
b1011000010 U
#707
b1011000011 U
#708
b1011000100 U
#709
b1011000101 U
#710
b1011000110 U
#711
b1011000111 U
#712
b1011001000 U
#713
b1011001001 U
#714
b1011001010 U
#715
b1011001011 U
#716
b1011001100 U
#717
b1011001101 U
#718
b1011001110 U
#719
b1011001111 U
#720
b1011010000 U
#721
b1011010001 U
#722
b1011010010 U
#723
b1011010011 U
#724
b1011010100 U
#725
b1011010101 U
#726
b1011010110 U
#727
b1011010111 U
#728
b1011011000 U
#729
b1011011001 U
#730
b1011011010 U
#731
b1011011011 U
#732
b1011011100 U
#733
b1011011101 U
#734
b1011011110 U
#735
b1011011111 U
#736
b1011100000 U
#737
b1011100001 U
#738
b1011100010 U
#739
b1011100011 U
#740
b1011100100 U
#741
b1011100101 U
#742
b1011100110 U
#743
b1011100111 U
#744
b1011101000 U
#745
b1011101001 U
#746
b1011101010 U
#747
b1011101011 U
#748
b1011101100 U
#749
b1011101101 U
#750
b1011101110 U
#751
b1011101111 U
#752
b1011110000 U
#753
b1011110001 U
#754
b1011110010 U
#755
b1011110011 U
#756
b1011110100 U
#757
b1011110101 U
#758
b1011110110 U
#759
b1011110111 U
#760
b1011111000 U
#761
b1011111001 U
#762
b1011111010 U
#763
b1011111011 U
#764
b1011111100 U
#765
b1011111101 U
#766
b1011111110 U
#767
b1011111111 U
#768
b1100000000 U
#769
b1100000001 U
#770
b1100000010 U
#771
b1100000011 U
#772
b1100000100 U
#773
b1100000101 U
#774
b1100000110 U
#775
b1100000111 U
#776
b1100001000 U
#777
b1100001001 U
#778
b1100001010 U
#779
b1100001011 U
#780
b1100001100 U
#781
b1100001101 U
#782
b1100001110 U
#783
b1100001111 U
#784
b1100010000 U
#785
b1100010001 U
#786
b1100010010 U
#787
b1100010011 U
#788
b1100010100 U
#789
b1100010101 U
#790
b1100010110 U
#791
b1100010111 U
#792
b1100011000 U
#793
b1100011001 U
#794
b1100011010 U
#795
b1100011011 U
#796
b1100011100 U
#797
b1100011101 U
#798
b1100011110 U
#799
b1100011111 U
#800
b1100100000 U
#801
b1100100001 U
#802
b1100100010 U
#803
b1100100011 U
#804
b1100100100 U
#805
b1100100101 U
#806
b1100100110 U
#807
b1100100111 U
#808
b1100101000 U
#809
b1100101001 U
#810
b1100101010 U
#811
b1100101011 U
#812
b1100101100 U
#813
b1100101101 U
#814
b1100101110 U
#815
b1100101111 U
#816
b1100110000 U
#817
b1100110001 U
#818
b1100110010 U
#819
b1100110011 U
#820
b1100110100 U
#821
b1100110101 U
#822
b1100110110 U
#823
b1100110111 U
#824
b1100111000 U
#825
b1100111001 U
#826
b1100111010 U
#827
b1100111011 U
#828
b1100111100 U
#829
b1100111101 U
#830
b1100111110 U
#831
b1100111111 U
#832
b1101000000 U
#833
b1101000001 U
#834
b1101000010 U
#835
b1101000011 U
#836
b1101000100 U
#837
b1101000101 U
#838
b1101000110 U
#839
b1101000111 U
#840
b1101001000 U
#841
b1101001001 U
#842
b1101001010 U
#843
b1101001011 U
#844
b1101001100 U
#845
b1101001101 U
#846
b1101001110 U
#847
b1101001111 U
#848
b1101010000 U
#849
b1101010001 U
#850
b1101010010 U
#851
b1101010011 U
#852
b1101010100 U
#853
b1101010101 U
#854
b1101010110 U
#855
b1101010111 U
#856
b1101011000 U
#857
b1101011001 U
#858
b1101011010 U
#859
b1101011011 U
#860
b1101011100 U
#861
b1101011101 U
#862
b1101011110 U
#863
b1101011111 U
#864
b1101100000 U
#865
b1101100001 U
#866
b1101100010 U
#867
b1101100011 U
#868
b1101100100 U
#869
b1101100101 U
#870
b1101100110 U
#871
b1101100111 U
#872
b1101101000 U
#873
b1101101001 U
#874
b1101101010 U
#875
b1101101011 U
#876
b1101101100 U
#877
b1101101101 U
#878
b1101101110 U
#879
b1101101111 U
#880
b1101110000 U
#881
b1101110001 U
#882
b1101110010 U
#883
b1101110011 U
#884
b1101110100 U
#885
b1101110101 U
#886
b1101110110 U
#887
b1101110111 U
#888
b1101111000 U
#889
b1101111001 U
#890
b1101111010 U
#891
b1101111011 U
#892
b1101111100 U
#893
b1101111101 U
#894
b1101111110 U
#895
b1101111111 U
#896
b1110000000 U
#897
b1110000001 U
#898
b1110000010 U
#899
b1110000011 U
#900
b1110000100 U
#901
b1110000101 U
#902
b1110000110 U
#903
b1110000111 U
#904
b1110001000 U
#905
b1110001001 U
#906
b1110001010 U
#907
b1110001011 U
#908
b1110001100 U
#909
b1110001101 U
#910
b1110001110 U
#911
b1110001111 U
#912
b1110010000 U
#913
b1110010001 U
#914
b1110010010 U
#915
b1110010011 U
#916
b1110010100 U
#917
b1110010101 U
#918
b1110010110 U
#919
b1110010111 U
#920
b1110011000 U
#921
b1110011001 U
#922
b1110011010 U
#923
b1110011011 U
#924
b1110011100 U
#925
b1110011101 U
#926
b1110011110 U
#927
b1110011111 U
#928
b1110100000 U
#929
b1110100001 U
#930
b1110100010 U
#931
b1110100011 U
#932
b1110100100 U
#933
b1110100101 U
#934
b1110100110 U
#935
b1110100111 U
#936
b1110101000 U
#937
b1110101001 U
#938
b1110101010 U
#939
b1110101011 U
#940
b1110101100 U
#941
b1110101101 U
#942
b1110101110 U
#943
b1110101111 U
#944
b1110110000 U
#945
b1110110001 U
#946
b1110110010 U
#947
b1110110011 U
#948
b1110110100 U
#949
b1110110101 U
#950
b1110110110 U
#951
b1110110111 U
#952
b1110111000 U
#953
b1110111001 U
#954
b1110111010 U
#955
b1110111011 U
#956
b1110111100 U
#957
b1110111101 U
#958
b1110111110 U
#959
b1110111111 U
#960
b1111000000 U
#961
b1111000001 U
#962
b1111000010 U
#963
b1111000011 U
#964
b1111000100 U
#965
b1111000101 U
#966
b1111000110 U
#967
b1111000111 U
#968
b1111001000 U
#969
b1111001001 U
#970
b1111001010 U
#971
b1111001011 U
#972
b1111001100 U
#973
b1111001101 U
#974
b1111001110 U
#975
b1111001111 U
#976
b1111010000 U
#977
b1111010001 U
#978
b1111010010 U
#979
b1111010011 U
#980
b1111010100 U
#981
b1111010101 U
#982
b1111010110 U
#983
b1111010111 U
#984
b1111011000 U
#985
b1111011001 U
#986
b1111011010 U
#987
b1111011011 U
#988
b1111011100 U
#989
b1111011101 U
#990
b1111011110 U
#991
b1111011111 U
#992
b1111100000 U
#993
b1111100001 U
#994
b1111100010 U
#995
b1111100011 U
#996
b1111100100 U
#997
b1111100101 U
#998
b1111100110 U
#999
b1111100111 U
#1000
b1111101000 U
#1001
b1111101001 U
#1002
b1111101010 U
#1003
b1111101011 U
#1004
b1111101100 U
#1005
b1111101101 U
#1006
b1111101110 U
#1007
b1111101111 U
#1008
b1111110000 U
#1009
b1111110001 U
#1010
b1111110010 U
#1011
b1111110011 U
#1012
b1111110100 U
#1013
b1111110101 U
#1014
b1111110110 U
#1015
b1111110111 U
#1016
b1111111000 U
#1017
b1111111001 U
#1018
b1111111010 U
#1019
b1111111011 U
#1020
b1111111100 U
#1021
b1111111101 U
#1022
b1111111110 U
#1023
b1111111111 U
#1024
b10000000000 U
#1025
b10000000001 U
#1026
b10000000010 U
#1027
b10000000011 U
#1028
b10000000100 U
#1029
b10000000101 U
#1030
b10000000110 U
#1031
b10000000111 U
#1032
b10000001000 U
#1033
b10000001001 U
#1034
b10000001010 U
#1035
b10000001011 U
#1036
b10000001100 U
#1037
b10000001101 U
#1038
b10000001110 U
#1039
b10000001111 U
#1040
b10000010000 U
#1041
b10000010001 U
#1042
b10000010010 U
#1043
b10000010011 U
#1044
b10000010100 U
#1045
b10000010101 U
#1046
b10000010110 U
#1047
b10000010111 U
#1048
b10000011000 U
#1049
b10000011001 U
#1050
b10000011010 U
#1051
b10000011011 U
#1052
b10000011100 U
#1053
b10000011101 U
#1054
b10000011110 U
#1055
b10000011111 U
#1056
b10000100000 U
#1057
b10000100001 U
#1058
b10000100010 U
#1059
b10000100011 U
#1060
b10000100100 U
#1061
b10000100101 U
#1062
b10000100110 U
#1063
b10000100111 U
#1064
b10000101000 U
#1065
b10000101001 U
#1066
b10000101010 U
#1067
b10000101011 U
#1068
b10000101100 U
#1069
b10000101101 U
#1070
b10000101110 U
#1071
b10000101111 U
#1072
b10000110000 U
#1073
b10000110001 U
#1074
b10000110010 U
#1075
b10000110011 U
#1076
b10000110100 U
#1077
b10000110101 U
#1078
b10000110110 U
#1079
b10000110111 U
#1080
b10000111000 U
#1081
b10000111001 U
#1082
b10000111010 U
#1083
b10000111011 U
#1084
b10000111100 U
#1085
b10000111101 U
#1086
b10000111110 U
#1087
b10000111111 U
#1088
b10001000000 U
#1089
b10001000001 U
#1090
b10001000010 U
#1091
b10001000011 U
#1092
b10001000100 U
#1093
b10001000101 U
#1094
b10001000110 U
#1095
b10001000111 U
#1096
b10001001000 U
#1097
b10001001001 U
#1098
b10001001010 U
#1099
b10001001011 U
#1100
b10001001100 U
#1101
b10001001101 U
#1102
b10001001110 U
#1103
b10001001111 U
#1104
b10001010000 U
#1105
b10001010001 U
#1106
b10001010010 U
#1107
b10001010011 U
#1108
b10001010100 U
#1109
b10001010101 U
#1110
b10001010110 U
#1111
b10001010111 U
#1112
b10001011000 U
#1113
b10001011001 U
#1114
b10001011010 U
#1115
b10001011011 U
#1116
b10001011100 U
#1117
b10001011101 U
#1118
b10001011110 U
#1119
b10001011111 U
#1120
b10001100000 U
#1121
b10001100001 U
#1122
b10001100010 U
#1123
b10001100011 U
#1124
b10001100100 U
#1125
b10001100101 U
#1126
b10001100110 U
#1127
b10001100111 U
#1128
b10001101000 U
#1129
b10001101001 U
#1130
b10001101010 U
#1131
b10001101011 U
#1132
b10001101100 U
#1133
b10001101101 U
#1134
b10001101110 U
#1135
b10001101111 U
#1136
b10001110000 U
#1137
b10001110001 U
#1138
b10001110010 U
#1139
b10001110011 U
#1140
b10001110100 U
#1141
b10001110101 U
#1142
b10001110110 U
#1143
b10001110111 U
#1144
b10001111000 U
#1145
b10001111001 U
#1146
b10001111010 U
#1147
b10001111011 U
#1148
b10001111100 U
#1149
b10001111101 U
#1150
b10001111110 U
#1151
b10001111111 U
#1152
b10010000000 U
#1153
b10010000001 U
#1154
b10010000010 U
#1155
b10010000011 U
#1156
b10010000100 U
#1157
b10010000101 U
